<svg width="31" height="30" viewBox="0 0 31 30" fill="none" xmlns="http://www.w3.org/2000/svg">
<path fill-rule="evenodd" clip-rule="evenodd" d="M15.3908 30C23.6836 30 30.4063 23.2843 30.4063 15C30.4063 6.71573 23.6836 0 15.3908 0C7.09791 0 0.375214 6.71573 0.375214 15C0.375214 23.2843 7.09791 30 15.3908 30ZM19.3071 7.85853L19.307 7.85853L19.3069 7.85853C19.2435 7.85916 19.1872 7.85972 19.139 7.85972C18.8422 7.83101 18.2568 7.46714 18.2614 6.90825C18.2661 6.34945 18.9284 6.08978 19.2268 6.03616C27.9054 5.46644 26.4247 11.7954 26.1096 13.1421C26.0857 13.2441 26.0685 13.3176 26.063 13.3573C25.8982 13.841 25.53 14.4766 24.9319 14.3237C24.2754 14.141 24.376 13.2774 24.5097 12.7136C25.4244 7.79734 20.6825 7.84477 19.3071 7.85853ZM19.4601 10.0877L19.4331 10.0914C19.2585 10.1123 19.0313 9.95795 18.9963 9.68211C18.9614 9.40628 19.1684 9.21843 19.4767 9.18383C23.4736 8.75368 22.9414 12.4003 22.882 12.807L22.8791 12.8274C22.8398 13.1077 22.6956 13.4147 22.3288 13.3213C22.0671 13.2546 22.086 13.004 22.1036 12.7694C22.1107 12.675 22.1176 12.5833 22.106 12.5071C22.3211 9.68526 19.7923 10.041 19.4601 10.0877ZM20.587 14.6445C20.587 14.6445 19.49 14.8858 20.0078 14.0545C20.8242 12.4284 19.4978 9.76059 16.0588 11.5337C14.8741 12.1773 14.8741 11.7214 14.9136 10.9169C15.0201 6.52478 7.02865 9.65644 4.76453 15.3657C3.48788 18.8311 5.53243 21.826 8.69522 23.1321C16.4141 25.9395 22.035 21.2951 22.9935 18.2916C24.2712 13.7795 20.587 14.6445 20.587 14.6445ZM5.94968 18.441C6.2911 20.9695 9.53006 22.6042 13.1841 22.0922C16.8382 21.5803 19.5236 19.1155 19.1822 16.587C18.8407 14.0585 15.6018 12.4238 11.9477 12.9358C8.29368 13.4477 5.60825 15.9125 5.94968 18.441ZM15.9695 16.8225C15.6795 15.2822 13.8998 14.3351 11.9944 14.7073C10.089 15.0795 8.77947 16.6299 9.06944 18.1703C9.35942 19.7107 11.1391 20.6577 13.0445 20.2855C14.9499 19.9133 16.2594 18.3629 15.9695 16.8225ZM10.5763 17.832C10.5763 18.4024 11.1096 18.8647 11.7675 18.8647C12.4254 18.8647 12.9587 18.4024 12.9587 17.832C12.9587 17.2617 12.4254 16.7993 11.7675 16.7993C11.1096 16.7993 10.5763 17.2617 10.5763 17.832ZM13.7192 17.4706C13.4736 17.4706 13.2239 17.17 13.2239 16.7993C13.2239 16.4286 13.4736 16.1281 13.7192 16.1281C13.9647 16.1281 14.2145 16.4286 14.2145 16.7993C14.2145 17.1701 13.9647 17.4706 13.7192 17.4706Z" fill="#A58965"/>
</svg>
